{
  "dryMatter": {
    "@type": "Term",
    "@id": "dryMatter"
  },
  "genericCropProduct": {
    "@type": "Term",
    "@id": "genericCropProduct"
  },
  "irrigatedLocalizedIrrigation": {
    "@type": "Term",
    "@id": "irrigatedLocalizedIrrigation"
  },
  "irrigatedSurfaceIrrigation": {
    "@type": "Term",
    "@id": "irrigatedSurfaceIrrigation"
  },
  "irrigatedSprinklerIrrigation": {
    "@type": "Term",
    "@id": "irrigatedSprinklerIrrigation"
  },
  "irrigated": {
    "@type": "Term",
    "@id": "irrigated"
  },
  "irrigating": {
    "@type": "Term",
    "@id": "irrigating"
  },
  "rainfed": {
    "@type": "Term",
    "@id": "rainfed"
  },
  "residueRemoved": {
    "@type": "Term",
    "@id": "residueRemoved"
  },
  "residueBurnt": {
    "@type": "Term",
    "@id": "residueBurnt"
  },
  "residueLeftOnField": {
    "@type": "Term",
    "@id": "residueLeftOnField"
  },
  "dryingMachineUnspecified": {
    "@type": "Term",
    "@id": "dryingMachineUnspecified"
  }
}
